########################################################################
user id: 1
scenario id: 0
PAS-M:
{0: [40.2, 7.800000000000001], 1: [0.7, 37.6], 2: [3.2999999999999994, 10.700000000000001], 3: [45.8, 103.9]}
{0: [0.6149223788377999, 0.13134264402360768, 0.2537349771385924], 1: [0.036009587809907394, 0.8176294643896621, 0.14636094780043052], 2: [0.1491200802887476, 0.4057453347391506, 0.4451345849721018], 3: [0.24941430615752455, 0.5590504426479556, 0.19153525119451986]}
label: C 0 confidence:  0.4020725754924793 prob:  0.7338371423423029
label: C 3 confidence:  0.3604581185616977 prob:  0.2572575899112528
label: C 2 confidence:  0.1598868768392662 prob:  0.23558955008853033
label: C 1 confidence:  0.07758242910655688 prob:  0.0678620424872784
decision:  [0] true label:  1  weighted prob:  0.43071895613865624
PAS-S:
{0: [40.2, 7.800000000000001], 1: [0.7, 37.6], 2: [3.2999999999999994, 10.700000000000001], 3: [45.8, 103.9]}
{0: [0.6149223788377999, 0.13134264402360768, 0.2537349771385924], 1: [0.036009587809907394, 0.8176294643896621, 0.14636094780043052], 2: [0.1491200802887476, 0.4057453347391506, 0.4451345849721018], 3: [0.24941430615752455, 0.5590504426479556, 0.19153525119451986]}
label: C 0 single context prob:  0.7338371423423029
decision:  [1] true label:  1  single context prob:  0.7338371423423029
PAS:
PAS makes an automated decision, same as PAS-M decision.


scenario id: 1
PAS-M:
{0: [40.2, 8.8], 1: [0.7, 37.6], 2: [3.2999999999999994, 10.700000000000001], 3: [45.8, 104.9]}
{0: [0.5981002538348074, 0.14226656523255124, 0.2596331809326414], 1: [0.036009587809907394, 0.8176294643896621, 0.14636094780043052], 2: [0.1491200802887476, 0.4057453347391506, 0.4451345849721018], 3: [0.24803435214545522, 0.5612572199188826, 0.19070842793566223]}
label: C 1 confidence:  0.5955168291804896 prob:  0.0678620424872784
label: C 3 confidence:  0.17992250974104101 prob:  0.2554229268285822
label: C 2 confidence:  0.14618610923694372 prob:  0.23558955008853033
label: C 0 confidence:  0.0783745518415255 prob:  0.7169430415227038
decision:  [0] true label:  0  weighted prob:  0.17699933168370297
PAS-S:
{0: [40.2, 7.800000000000001], 1: [0.7, 37.6], 2: [3.2999999999999994, 10.700000000000001], 3: [45.8, 103.9]}
{0: [0.6149223788377999, 0.13134264402360768, 0.2537349771385924], 1: [0.036009587809907394, 0.8176294643896621, 0.14636094780043052], 2: [0.1491200802887476, 0.4057453347391506, 0.4451345849721018], 3: [0.24941430615752455, 0.5590504426479556, 0.19153525119451986]}
label: C 1 single context prob:  0.0678620424872784
decision:  [0] true label:  0  single context prob:  0.0678620424872784
PAS:
PAS makes an automated decision, same as PAS-M decision.


scenario id: 2
PAS-M:
{0: [40.2, 8.8], 1: [1.7, 37.6], 2: [3.2999999999999994, 10.700000000000001], 3: [45.8, 104.9]}
{0: [0.5981002538348074, 0.14226656523255124, 0.2596331809326414], 1: [0.053637553309383385, 0.7668183547193328, 0.17954409197128385], 2: [0.1491200802887476, 0.4057453347391506, 0.4451345849721018], 3: [0.24803435214545522, 0.5612572199188826, 0.19070842793566223]}
label: C 0 confidence:  0.309257233443323 prob:  0.7169430415227038
label: C 2 confidence:  0.2733350928867089 prob:  0.23558955008853033
label: C 3 confidence:  0.2612678131609384 prob:  0.2554229268285822
label: C 1 confidence:  0.15613986050902987 prob:  0.08358880333160953
decision:  [0] true label:  0  weighted prob:  0.36590004673032345
PAS-S:
{0: [40.2, 7.800000000000001], 1: [0.7, 37.6], 2: [3.2999999999999994, 10.700000000000001], 3: [45.8, 103.9]}
{0: [0.6149223788377999, 0.13134264402360768, 0.2537349771385924], 1: [0.036009587809907394, 0.8176294643896621, 0.14636094780043052], 2: [0.1491200802887476, 0.4057453347391506, 0.4451345849721018], 3: [0.24941430615752455, 0.5590504426479556, 0.19153525119451986]}
label: C 0 single context prob:  0.7338371423423029
decision:  [1] true label:  0  single context prob:  0.7338371423423029
PAS:
PAS makes an automated decision, same as PAS-M decision.


scenario id: 3
PAS-M:
{0: [41.2, 8.8], 1: [2.7, 37.6], 2: [4.299999999999999, 10.700000000000001], 3: [46.8, 104.9]}
{0: [0.6038193347124026, 0.14022344739766693, 0.25595721788993053], 1: [0.06965495142065761, 0.7266705742803741, 0.20367447429896834], 2: [0.17000479400923524, 0.3752936018694439, 0.4547016041213209], 3: [0.2516406403027119, 0.5575051005869706, 0.19085425911031761]}
label: C 3 confidence:  0.8907464405199171 prob:  0.25975097284615306
label: C 2 confidence:  0.047406774901243315 prob:  0.27217915369552326
label: C 1 confidence:  0.040740962003529085 prob:  0.09545451404636122
label: C 0 confidence:  0.021105822575310535 prob:  0.721502461967519
decision:  [0] true label:  1  weighted prob:  0.2633922020361154
PAS-S:
{0: [40.2, 7.800000000000001], 1: [0.7, 37.6], 2: [3.2999999999999994, 10.700000000000001], 3: [45.8, 103.9]}
{0: [0.6149223788377999, 0.13134264402360768, 0.2537349771385924], 1: [0.036009587809907394, 0.8176294643896621, 0.14636094780043052], 2: [0.1491200802887476, 0.4057453347391506, 0.4451345849721018], 3: [0.24941430615752455, 0.5590504426479556, 0.19153525119451986]}
label: C 3 single context prob:  0.2572575899112528
decision:  [0] true label:  1  single context prob:  0.2572575899112528
PAS:
PAS makes an automated decision, same as PAS-M decision.


scenario id: 4
PAS-M:
{0: [41.2, 8.8], 1: [2.7, 37.6], 2: [4.299999999999999, 10.700000000000001], 3: [46.8, 105.9]}
{0: [0.6038193347124026, 0.14022344739766693, 0.25595721788993053], 1: [0.06965495142065761, 0.7266705742803741, 0.20367447429896834], 2: [0.17000479400923524, 0.3752936018694439, 0.4547016041213209], 3: [0.2502644807838133, 0.5596919036776076, 0.19004361553857918]}
label: C 3 confidence:  0.2682661557992465 prob:  0.25792477714439804
label: C 0 confidence:  0.25588640360765985 prob:  0.721502461967519
label: C 1 confidence:  0.2555255536776115 prob:  0.09545451404636122
label: C 2 confidence:  0.2203218869154821 prob:  0.27217915369552326
decision:  [0] true label:  1  weighted prob:  0.33817325091082634
PAS-S:
{0: [40.2, 7.800000000000001], 1: [0.7, 37.6], 2: [3.2999999999999994, 10.700000000000001], 3: [45.8, 103.9]}
{0: [0.6149223788377999, 0.13134264402360768, 0.2537349771385924], 1: [0.036009587809907394, 0.8176294643896621, 0.14636094780043052], 2: [0.1491200802887476, 0.4057453347391506, 0.4451345849721018], 3: [0.24941430615752455, 0.5590504426479556, 0.19153525119451986]}
label: C 3 single context prob:  0.2572575899112528
decision:  [0] true label:  1  single context prob:  0.2572575899112528
PAS:
PAS makes an automated decision, same as PAS-M decision.


scenario id: 5
PAS-M:
{0: [41.2, 9.8], 1: [2.7, 38.6], 2: [4.299999999999999, 11.700000000000001], 3: [46.8, 106.9]}
{0: [0.5885179084880585, 0.15061595762253624, 0.26086613388940527], 1: [0.0683675966486433, 0.7317180614287228, 0.1999143419226339], 2: [0.1652908348796395, 0.3960742647115891, 0.4386349004087714], 3: [0.2489040844665838, 0.5618567094967446, 0.18923920603667155]}
label: C 3 confidence:  0.44305685840694825 prob:  0.25612229047704593
label: C 0 confidence:  0.32757197239345415 prob:  0.7057469862546601
label: C 2 confidence:  0.12099926093353594 prob:  0.2547397794686571
label: C 1 confidence:  0.10837190826606177 prob:  0.09469992621849148
decision:  [0] true label:  1  weighted prob:  0.3857458064479594
PAS-S:
{0: [40.2, 7.800000000000001], 1: [0.7, 37.6], 2: [3.2999999999999994, 10.700000000000001], 3: [45.8, 103.9]}
{0: [0.6149223788377999, 0.13134264402360768, 0.2537349771385924], 1: [0.036009587809907394, 0.8176294643896621, 0.14636094780043052], 2: [0.1491200802887476, 0.4057453347391506, 0.4451345849721018], 3: [0.24941430615752455, 0.5590504426479556, 0.19153525119451986]}
label: C 3 single context prob:  0.2572575899112528
decision:  [0] true label:  1  single context prob:  0.2572575899112528
PAS:
PAS makes an automated decision, same as PAS-M decision.


scenario id: 6
PAS-M:
{0: [41.2, 10.8], 1: [2.7, 38.6], 2: [4.299999999999999, 11.700000000000001], 3: [46.8, 107.9]}
{0: [0.5744507506423414, 0.1606284089473845, 0.2649208404102741], 1: [0.0683675966486433, 0.7317180614287228, 0.1999143419226339], 2: [0.1652908348796395, 0.3960742647115891, 0.4386349004087714], 3: [0.2475591632748703, 0.5639998510592756, 0.1884409856658541]}
label: C 3 confidence:  0.850934696674991 prob:  0.25434306682537794
label: C 2 confidence:  0.05298390127048364 prob:  0.2547397794686571
label: C 0 confidence:  0.04816858651014484 prob:  0.6908494417963995
label: C 1 confidence:  0.04791281554438048 prob:  0.09469992621849148
decision:  [0] true label:  1  weighted prob:  0.2677410289451002
PAS-S:
{0: [40.2, 7.800000000000001], 1: [0.7, 37.6], 2: [3.2999999999999994, 10.700000000000001], 3: [45.8, 103.9]}
{0: [0.6149223788377999, 0.13134264402360768, 0.2537349771385924], 1: [0.036009587809907394, 0.8176294643896621, 0.14636094780043052], 2: [0.1491200802887476, 0.4057453347391506, 0.4451345849721018], 3: [0.24941430615752455, 0.5590504426479556, 0.19153525119451986]}
label: C 3 single context prob:  0.2572575899112528
decision:  [0] true label:  1  single context prob:  0.2572575899112528
PAS:
PAS makes an automated decision, same as PAS-M decision.


scenario id: 7
PAS-M:
{0: [41.2, 10.8], 1: [2.7, 38.6], 2: [4.299999999999999, 11.700000000000001], 3: [46.8, 108.9]}
{0: [0.5744507506423414, 0.1606284089473845, 0.2649208404102741], 1: [0.0683675966486433, 0.7317180614287228, 0.1999143419226339], 2: [0.1652908348796395, 0.3960742647115891, 0.4386349004087714], 3: [0.24622943643990533, 0.5661216540741756, 0.18764890948591906]}
label: C 3 confidence:  0.8209337037221516 prob:  0.252586671108073
label: C 2 confidence:  0.07033004697215164 prob:  0.2547397794686571
label: C 1 confidence:  0.05945947376218235 prob:  0.09469992621849148
label: C 0 confidence:  0.0492767755435143 prob:  0.6908494417963995
decision:  [0] true label:  0  weighted prob:  0.2649464127353379
PAS-S:
{0: [40.2, 7.800000000000001], 1: [0.7, 37.6], 2: [3.2999999999999994, 10.700000000000001], 3: [45.8, 103.9]}
{0: [0.6149223788377999, 0.13134264402360768, 0.2537349771385924], 1: [0.036009587809907394, 0.8176294643896621, 0.14636094780043052], 2: [0.1491200802887476, 0.4057453347391506, 0.4451345849721018], 3: [0.24941430615752455, 0.5590504426479556, 0.19153525119451986]}
label: C 3 single context prob:  0.2572575899112528
decision:  [0] true label:  0  single context prob:  0.2572575899112528
PAS:
PAS makes an automated decision, same as PAS-M decision.


scenario id: 8
PAS-M:
{0: [41.2, 10.8], 1: [2.7, 38.6], 2: [4.299999999999999, 11.700000000000001], 3: [47.8, 108.9]}
{0: [0.5744507506423414, 0.1606284089473845, 0.2649208404102741], 1: [0.0683675966486433, 0.7317180614287228, 0.1999143419226339], 2: [0.1652908348796395, 0.3960742647115891, 0.4386349004087714], 3: [0.24974829059369133, 0.5624454331198089, 0.18780627628649982]}
label: C 0 confidence:  0.3857896395881778 prob:  0.6908494417963995
label: C 3 confidence:  0.35865860642820135 prob:  0.25680127395701235
label: C 2 confidence:  0.13913564127020933 prob:  0.2547397794686571
label: C 1 confidence:  0.11641611271341168 prob:  0.09469992621849148
decision:  [0] true label:  0  weighted prob:  0.4050945240647426
PAS-S:
{0: [40.2, 7.800000000000001], 1: [0.7, 37.6], 2: [3.2999999999999994, 10.700000000000001], 3: [45.8, 103.9]}
{0: [0.6149223788377999, 0.13134264402360768, 0.2537349771385924], 1: [0.036009587809907394, 0.8176294643896621, 0.14636094780043052], 2: [0.1491200802887476, 0.4057453347391506, 0.4451345849721018], 3: [0.24941430615752455, 0.5590504426479556, 0.19153525119451986]}
label: C 0 single context prob:  0.7338371423423029
decision:  [1] true label:  0  single context prob:  0.7338371423423029
PAS:
PAS makes an automated decision, same as PAS-M decision.


scenario id: 9
PAS-M:
{0: [42.2, 10.8], 1: [2.7, 38.6], 2: [4.299999999999999, 11.700000000000001], 3: [48.8, 108.9]}
{0: [0.5800866659178949, 0.15844959856090643, 0.2614637355211986], 1: [0.0683675966486433, 0.7317180614287228, 0.1999143419226339], 2: [0.1652908348796395, 0.3960742647115891, 0.4386349004087714], 3: [0.2532288011871008, 0.5588322339450276, 0.18793896486787165]}
label: C 0 confidence:  0.604816149152533 prob:  0.6955360832990451
label: C 3 confidence:  0.19096728548431074 prob:  0.260965828525395
label: C 2 confidence:  0.10387318302282088 prob:  0.2547397794686571
label: C 1 confidence:  0.10034338234033559 prob:  0.09469992621849148
decision:  [1] true label:  1  weighted prob:  0.5064705340153071
PAS-S:
{0: [40.2, 7.800000000000001], 1: [0.7, 37.6], 2: [3.2999999999999994, 10.700000000000001], 3: [45.8, 103.9]}
{0: [0.6149223788377999, 0.13134264402360768, 0.2537349771385924], 1: [0.036009587809907394, 0.8176294643896621, 0.14636094780043052], 2: [0.1491200802887476, 0.4057453347391506, 0.4451345849721018], 3: [0.24941430615752455, 0.5590504426479556, 0.19153525119451986]}
label: C 0 single context prob:  0.7338371423423029
decision:  [1] true label:  1  single context prob:  0.7338371423423029
PAS:
PAS makes an automated decision, same as PAS-M decision.


scenario id: 10
PAS-M:
{0: [43.2, 10.8], 1: [2.7, 38.6], 2: [4.299999999999999, 11.700000000000001], 3: [48.8, 108.9]}
{0: [0.585572955533572, 0.15632943156778611, 0.25809761289864186], 1: [0.0683675966486433, 0.7317180614287228, 0.1999143419226339], 2: [0.1652908348796395, 0.3960742647115891, 0.4386349004087714], 3: [0.2532288011871008, 0.5588322339450276, 0.18793896486787165]}
label: C 3 confidence:  0.916331266037013 prob:  0.260965828525395
label: C 2 confidence:  0.03698696716551417 prob:  0.2547397794686571
label: C 1 confidence:  0.03384963559571846 prob:  0.09469992621849148
label: C 0 confidence:  0.012832131201754316 prob:  0.7000832701593099
decision:  [0] true label:  1  weighted prob:  0.2607423182723057
PAS-S:
{0: [40.2, 7.800000000000001], 1: [0.7, 37.6], 2: [3.2999999999999994, 10.700000000000001], 3: [45.8, 103.9]}
{0: [0.6149223788377999, 0.13134264402360768, 0.2537349771385924], 1: [0.036009587809907394, 0.8176294643896621, 0.14636094780043052], 2: [0.1491200802887476, 0.4057453347391506, 0.4451345849721018], 3: [0.24941430615752455, 0.5590504426479556, 0.19153525119451986]}
label: C 3 single context prob:  0.2572575899112528
decision:  [0] true label:  1  single context prob:  0.2572575899112528
PAS:
PAS makes an automated decision, same as PAS-M decision.


scenario id: 11
PAS-M:
{0: [43.2, 10.8], 1: [2.7, 38.6], 2: [4.299999999999999, 11.700000000000001], 3: [48.8, 109.9]}
{0: [0.585572955533572, 0.15632943156778611, 0.25809761289864186], 1: [0.0683675966486433, 0.7317180614287228, 0.1999143419226339], 2: [0.1652908348796395, 0.3960742647115891, 0.4386349004087714], 3: [0.25189108826251877, 0.560938186512316, 0.1871707252251652]}
label: C 0 confidence:  0.6336430744862116 prob:  0.7000832701593099
label: C 3 confidence:  0.1717168696575689 prob:  0.2592023162216187
label: C 2 confidence:  0.10618585174800638 prob:  0.2547397794686571
label: C 1 confidence:  0.08845420410821327 prob:  0.09469992621849148
decision:  [1] true label:  1  weighted prob:  0.5235386931094157
PAS-S:
{0: [40.2, 7.800000000000001], 1: [0.7, 37.6], 2: [3.2999999999999994, 10.700000000000001], 3: [45.8, 103.9]}
{0: [0.6149223788377999, 0.13134264402360768, 0.2537349771385924], 1: [0.036009587809907394, 0.8176294643896621, 0.14636094780043052], 2: [0.1491200802887476, 0.4057453347391506, 0.4451345849721018], 3: [0.24941430615752455, 0.5590504426479556, 0.19153525119451986]}
label: C 0 single context prob:  0.7338371423423029
decision:  [1] true label:  1  single context prob:  0.7338371423423029
PAS:
PAS makes an automated decision, same as PAS-M decision.


scenario id: 12
PAS-M:
{0: [44.2, 10.8], 1: [2.7, 38.6], 2: [4.299999999999999, 11.700000000000001], 3: [48.8, 109.9]}
{0: [0.59091535970642, 0.15426551425964058, 0.2548191260339395], 1: [0.0683675966486433, 0.7317180614287228, 0.1999143419226339], 2: [0.1652908348796395, 0.3960742647115891, 0.4386349004087714], 3: [0.25189108826251877, 0.560938186512316, 0.1871707252251652]}
label: C 2 confidence:  0.42032691875171885 prob:  0.2547397794686571
label: C 3 confidence:  0.27100678015206825 prob:  0.2592023162216187
label: C 0 confidence:  0.18274267725969082 prob:  0.7044970318059658
label: C 1 confidence:  0.12592362383652192 prob:  0.09469992621849148
decision:  [0] true label:  1  weighted prob:  0.3179862033149436
PAS-S:
{0: [40.2, 7.800000000000001], 1: [0.7, 37.6], 2: [3.2999999999999994, 10.700000000000001], 3: [45.8, 103.9]}
{0: [0.6149223788377999, 0.13134264402360768, 0.2537349771385924], 1: [0.036009587809907394, 0.8176294643896621, 0.14636094780043052], 2: [0.1491200802887476, 0.4057453347391506, 0.4451345849721018], 3: [0.24941430615752455, 0.5590504426479556, 0.19153525119451986]}
label: C 2 single context prob:  0.23558955008853033
decision:  [0] true label:  1  single context prob:  0.23558955008853033
PAS:
PAS makes an automated decision, same as PAS-M decision.


scenario id: 13
PAS-M:
{0: [44.2, 10.8], 1: [2.7, 38.6], 2: [4.299999999999999, 12.700000000000001], 3: [48.8, 110.9]}
{0: [0.59091535970642, 0.15426551425964058, 0.2548191260339395], 1: [0.0683675966486433, 0.7317180614287228, 0.1999143419226339], 2: [0.16078318755328153, 0.415609371599992, 0.4236074408467264], 3: [0.2505681744857885, 0.5630236691758983, 0.1864081563383132]}
label: C 0 confidence:  0.6611341381304148 prob:  0.7044970318059658
label: C 3 confidence:  0.1499943881642746 prob:  0.25746086414286484
label: C 1 confidence:  0.09536343155725892 prob:  0.09469992621849148
label: C 2 confidence:  0.09350804214805179 prob:  0.23889242976592862
decision:  [1] true label:  1  weighted prob:  0.5357539960556446
PAS-S:
{0: [40.2, 7.800000000000001], 1: [0.7, 37.6], 2: [3.2999999999999994, 10.700000000000001], 3: [45.8, 103.9]}
{0: [0.6149223788377999, 0.13134264402360768, 0.2537349771385924], 1: [0.036009587809907394, 0.8176294643896621, 0.14636094780043052], 2: [0.1491200802887476, 0.4057453347391506, 0.4451345849721018], 3: [0.24941430615752455, 0.5590504426479556, 0.19153525119451986]}
label: C 0 single context prob:  0.7338371423423029
decision:  [1] true label:  1  single context prob:  0.7338371423423029
PAS:
PAS makes an automated decision, same as PAS-M decision.


total user inputs:  0
PAS accuracy:  0.5
PAS-M accuracy:  0.5
PAS-S accuracy:  0.42857142857142855
########################################################################
user id: 4
scenario id: 0
PAS-M:
{0: [43.2, 4.8], 1: [0.0, 38.3], 2: [1.8, 12.200000000000001], 3: [55.7, 93.99999999999999]}
{0: [0.6928501451277462, 0.09091698736970424, 0.21623286750254955], 1: [0.02197212844387989, 0.8635046478444797, 0.11452322371164048], 2: [0.1085416413018744, 0.5116963089945508, 0.37976204970357486], 3: [0.2992535799770188, 0.5013948870867156, 0.1993515329362655]}
label: C 0 confidence:  0.4020725754924793 prob:  0.8029306247456317
label: C 3 confidence:  0.3604581185616977 prob:  0.31891066039163557
label: C 2 confidence:  0.1598868768392662 prob:  0.14207603199449492
label: C 1 confidence:  0.07758242910655688 prob:  0.052149530178030284
decision:  [0] true label:  1  weighted prob:  0.4645523011245918
PAS-S:
{0: [43.2, 4.8], 1: [0.0, 38.3], 2: [1.8, 12.200000000000001], 3: [55.7, 93.99999999999999]}
{0: [0.6928501451277462, 0.09091698736970424, 0.21623286750254955], 1: [0.02197212844387989, 0.8635046478444797, 0.11452322371164048], 2: [0.1085416413018744, 0.5116963089945508, 0.37976204970357486], 3: [0.2992535799770188, 0.5013948870867156, 0.1993515329362655]}
label: C 0 single context prob:  0.8029306247456317
decision:  [1] true label:  1  single context prob:  0.8029306247456317
PAS:
PAS makes an automated decision, same as PAS-M decision.


scenario id: 1
PAS-M:
{0: [43.2, 5.8], 1: [0.0, 38.3], 2: [1.8, 12.200000000000001], 3: [55.7, 94.99999999999999]}
{0: [0.6699983961848437, 0.10307667633612977, 0.2269249274790266], 1: [0.02197212844387989, 0.8635046478444797, 0.11452322371164048], 2: [0.1085416413018744, 0.5116963089945508, 0.37976204970357486], 3: [0.2975815534074277, 0.5038417835469673, 0.19857666304560495]}
label: C 1 confidence:  0.5955168291804896 prob:  0.052149530178030284
label: C 3 confidence:  0.17992250974104101 prob:  0.3166763311550879
label: C 2 confidence:  0.14618610923694372 prob:  0.14207603199449492
label: C 0 confidence:  0.0783745518415255 prob:  0.7827626853699043
decision:  [0] true label:  1  weighted prob:  0.17015134012911534
PAS-S:
{0: [43.2, 4.8], 1: [0.0, 38.3], 2: [1.8, 12.200000000000001], 3: [55.7, 93.99999999999999]}
{0: [0.6928501451277462, 0.09091698736970424, 0.21623286750254955], 1: [0.02197212844387989, 0.8635046478444797, 0.11452322371164048], 2: [0.1085416413018744, 0.5116963089945508, 0.37976204970357486], 3: [0.2992535799770188, 0.5013948870867156, 0.1993515329362655]}
label: C 1 single context prob:  0.052149530178030284
decision:  [0] true label:  1  single context prob:  0.052149530178030284
PAS:
PAS makes an automated decision, same as PAS-M decision.


scenario id: 2
PAS-M:
{0: [43.2, 5.8], 1: [0.0, 39.3], 2: [1.8, 12.200000000000001], 3: [55.7, 94.99999999999999]}
{0: [0.6699983961848437, 0.10307667633612977, 0.2269249274790266], 1: [0.021492651445107126, 0.8661538532378171, 0.11235349531707572], 2: [0.1085416413018744, 0.5116963089945508, 0.37976204970357486], 3: [0.2975815534074277, 0.5038417835469673, 0.19857666304560495]}
label: C 0 confidence:  0.309257233443323 prob:  0.7827626853699043
label: C 2 confidence:  0.2733350928867089 prob:  0.14207603199449492
label: C 3 confidence:  0.2612678131609384 prob:  0.3166763311550879
label: C 1 confidence:  0.15613986050902987 prob:  0.05139596714848388
decision:  [0] true label:  0  weighted prob:  0.3716716795843631
PAS-S:
{0: [43.2, 4.8], 1: [0.0, 38.3], 2: [1.8, 12.200000000000001], 3: [55.7, 93.99999999999999]}
{0: [0.6928501451277462, 0.09091698736970424, 0.21623286750254955], 1: [0.02197212844387989, 0.8635046478444797, 0.11452322371164048], 2: [0.1085416413018744, 0.5116963089945508, 0.37976204970357486], 3: [0.2992535799770188, 0.5013948870867156, 0.1993515329362655]}
label: C 0 single context prob:  0.8029306247456317
decision:  [1] true label:  0  single context prob:  0.8029306247456317
PAS:
PAS makes an automated decision, same as PAS-M decision.


scenario id: 3
PAS-M:
{0: [44.2, 5.8], 1: [1.0, 39.3], 2: [2.8, 12.200000000000001], 3: [56.7, 94.99999999999999]}
{0: [0.6749246139296747, 0.10153733129915458, 0.22353805477117072], 1: [0.040077299193282755, 0.8075575787446474, 0.15236512206206987], 2: [0.1319408366412502, 0.45832080096434286, 0.409738362394407], 3: [0.30092094240932005, 0.5006656927434093, 0.19841336484727068]}
label: C 3 confidence:  0.8907464405199171 prob:  0.32063019655687286
label: C 2 confidence:  0.047406774901243315 prob:  0.1899922396394716
label: C 1 confidence:  0.040740962003529085 prob:  0.07170183501361864
label: C 0 confidence:  0.021105822575310535 prob:  0.7863499892671082
decision:  [0] true label:  1  weighted prob:  0.31412489073524946
PAS-S:
{0: [43.2, 4.8], 1: [0.0, 38.3], 2: [1.8, 12.200000000000001], 3: [55.7, 93.99999999999999]}
{0: [0.6928501451277462, 0.09091698736970424, 0.21623286750254955], 1: [0.02197212844387989, 0.8635046478444797, 0.11452322371164048], 2: [0.1085416413018744, 0.5116963089945508, 0.37976204970357486], 3: [0.2992535799770188, 0.5013948870867156, 0.1993515329362655]}
label: C 3 single context prob:  0.31891066039163557
decision:  [0] true label:  1  single context prob:  0.31891066039163557
PAS:
PAS asks user.
Conflict ratio: 0.19974475033408928 Dominant context: 3


scenario id: 4
PAS-M:
{0: [44.2, 5.8], 1: [1.0, 39.3], 2: [2.8, 12.200000000000001], 3: [56.7, 94.99999999999999]}
{0: [0.6749246139296747, 0.10153733129915458, 0.22353805477117072], 1: [0.040077299193282755, 0.8075575787446474, 0.15236512206206987], 2: [0.1319408366412502, 0.45832080096434286, 0.409738362394407], 3: [0.30092094240932005, 0.5006656927434093, 0.19841336484727068]}
label: C 3 confidence:  0.2682661557992465 prob:  0.32063019655687286
label: C 0 confidence:  0.25588640360765985 prob:  0.7863499892671082
label: C 1 confidence:  0.2555255536776115 prob:  0.07170183501361864
label: C 2 confidence:  0.2203218869154821 prob:  0.1899922396394716
decision:  [0] true label:  1  weighted prob:  0.3474116008221738
PAS-S:
{0: [43.2, 4.8], 1: [0.0, 38.3], 2: [1.8, 12.200000000000001], 3: [55.7, 93.99999999999999]}
{0: [0.6928501451277462, 0.09091698736970424, 0.21623286750254955], 1: [0.02197212844387989, 0.8635046478444797, 0.11452322371164048], 2: [0.1085416413018744, 0.5116963089945508, 0.37976204970357486], 3: [0.2992535799770188, 0.5013948870867156, 0.1993515329362655]}
label: C 3 single context prob:  0.31891066039163557
decision:  [0] true label:  1  single context prob:  0.31891066039163557
PAS:
PAS makes an automated decision, same as PAS-M decision.


scenario id: 5
PAS-M:
{0: [44.2, 6.8], 1: [1.0, 40.3], 2: [2.8, 13.200000000000001], 3: [56.7, 95.99999999999999]}
{0: [0.65473496916397, 0.11298523804157001, 0.23227979279445998], 1: [0.039283008859117986, 0.8111941329407865, 0.1495228582000956], 2: [0.12801504143204284, 0.4783719969302654, 0.39361296163769177], 3: [0.29925890701860647, 0.503086897414295, 0.1976541955670985]}
label: C 3 confidence:  0.44305685840694825 prob:  0.31841418835009566
label: C 0 confidence:  0.32757197239345415 prob:  0.7678586571595174
label: C 2 confidence:  0.12099926093353594 prob:  0.17588939993839933
label: C 1 confidence:  0.10837190826606177 prob:  0.07086135925151535
decision:  [0] true label:  1  weighted prob:  0.421566432930727
PAS-S:
{0: [43.2, 4.8], 1: [0.0, 38.3], 2: [1.8, 12.200000000000001], 3: [55.7, 93.99999999999999]}
{0: [0.6928501451277462, 0.09091698736970424, 0.21623286750254955], 1: [0.02197212844387989, 0.8635046478444797, 0.11452322371164048], 2: [0.1085416413018744, 0.5116963089945508, 0.37976204970357486], 3: [0.2992535799770188, 0.5013948870867156, 0.1993515329362655]}
label: C 3 single context prob:  0.31891066039163557
decision:  [0] true label:  1  single context prob:  0.31891066039163557
PAS:
PAS makes an automated decision, same as PAS-M decision.


scenario id: 6
PAS-M:
{0: [44.2, 7.8], 1: [1.0, 40.3], 2: [2.8, 13.200000000000001], 3: [56.7, 96.99999999999999]}
{0: [0.6365534846955182, 0.1239307669318707, 0.23951574837261114], 1: [0.039283008859117986, 0.8111941329407865, 0.1495228582000956], 2: [0.12801504143204284, 0.4783719969302654, 0.39361296163769177], 3: [0.2976166475130118, 0.5054840806980095, 0.1968992717889786]}
label: C 3 confidence:  0.850934696674991 prob:  0.3162267631960396
label: C 2 confidence:  0.05298390127048364 prob:  0.17588939993839933
label: C 0 confidence:  0.04816858651014484 prob:  0.7505795633310062
label: C 1 confidence:  0.04791281554438048 prob:  0.07086135925151535
decision:  [0] true label:  1  weighted prob:  0.3179571552856951
PAS-S:
{0: [43.2, 4.8], 1: [0.0, 38.3], 2: [1.8, 12.200000000000001], 3: [55.7, 93.99999999999999]}
{0: [0.6928501451277462, 0.09091698736970424, 0.21623286750254955], 1: [0.02197212844387989, 0.8635046478444797, 0.11452322371164048], 2: [0.1085416413018744, 0.5116963089945508, 0.37976204970357486], 3: [0.2992535799770188, 0.5013948870867156, 0.1993515329362655]}
label: C 3 single context prob:  0.31891066039163557
decision:  [0] true label:  1  single context prob:  0.31891066039163557
PAS:
PAS makes an automated decision, same as PAS-M decision.


scenario id: 7
PAS-M:
{0: [44.2, 7.8], 1: [1.0, 40.3], 2: [2.8, 13.200000000000001], 3: [56.7, 97.99999999999999]}
{0: [0.6365534846955182, 0.1239307669318707, 0.23951574837261114], 1: [0.039283008859117986, 0.8111941329407865, 0.1495228582000956], 2: [0.12801504143204284, 0.4783719969302654, 0.39361296163769177], 3: [0.2959937766385166, 0.5078576063641792, 0.19614861699730424]}
label: C 3 confidence:  0.8209337037221516 prob:  0.31406737971700405
label: C 2 confidence:  0.07033004697215164 prob:  0.17588939993839933
label: C 1 confidence:  0.05945947376218235 prob:  0.07086135925151535
label: C 0 confidence:  0.0492767755435143 prob:  0.7505795633310062
decision:  [0] true label:  0  weighted prob:  0.3113983268099418
PAS-S:
{0: [43.2, 4.8], 1: [0.0, 38.3], 2: [1.8, 12.200000000000001], 3: [55.7, 93.99999999999999]}
{0: [0.6928501451277462, 0.09091698736970424, 0.21623286750254955], 1: [0.02197212844387989, 0.8635046478444797, 0.11452322371164048], 2: [0.1085416413018744, 0.5116963089945508, 0.37976204970357486], 3: [0.2992535799770188, 0.5013948870867156, 0.1993515329362655]}
label: C 3 single context prob:  0.31891066039163557
decision:  [0] true label:  0  single context prob:  0.31891066039163557
PAS:
PAS makes an automated decision, same as PAS-M decision.


scenario id: 8
PAS-M:
{0: [44.2, 7.8], 1: [1.0, 40.3], 2: [2.8, 13.200000000000001], 3: [57.7, 97.99999999999999]}
{0: [0.6365534846955182, 0.1239307669318707, 0.23951574837261114], 1: [0.039283008859117986, 0.8111941329407865, 0.1495228582000956], 2: [0.12801504143204284, 0.4783719969302654, 0.39361296163769177], 3: [0.2992682927844729, 0.5047284665359933, 0.19600324067953367]}
label: C 0 confidence:  0.3857896395881778 prob:  0.7505795633310062
label: C 3 confidence:  0.35865860642820135 prob:  0.3179418220879269
label: C 2 confidence:  0.13913564127020933 prob:  0.17588939993839933
label: C 1 confidence:  0.11641611271341168 prob:  0.07086135925151535
decision:  [0] true label:  0  weighted prob:  0.43632027849373123
PAS-S:
{0: [43.2, 4.8], 1: [0.0, 38.3], 2: [1.8, 12.200000000000001], 3: [55.7, 93.99999999999999]}
{0: [0.6928501451277462, 0.09091698736970424, 0.21623286750254955], 1: [0.02197212844387989, 0.8635046478444797, 0.11452322371164048], 2: [0.1085416413018744, 0.5116963089945508, 0.37976204970357486], 3: [0.2992535799770188, 0.5013948870867156, 0.1993515329362655]}
label: C 0 single context prob:  0.8029306247456317
decision:  [1] true label:  0  single context prob:  0.8029306247456317
PAS:
PAS makes an automated decision, same as PAS-M decision.


scenario id: 9
PAS-M:
{0: [45.2, 7.8], 1: [1.0, 40.3], 2: [2.8, 13.200000000000001], 3: [58.7, 97.99999999999999]}
{0: [0.6415772946163083, 0.12220519897453484, 0.23621750640915684], 1: [0.039283008859117986, 0.8111941329407865, 0.1495228582000956], 2: [0.12801504143204284, 0.4783719969302654, 0.39361296163769177], 3: [0.30250880551977705, 0.5016477679473689, 0.19584342653285414]}
label: C 0 confidence:  0.604816149152533 prob:  0.7544407910898029
label: C 3 confidence:  0.19096728548431074 prob:  0.3217704436521187
label: C 2 confidence:  0.10387318302282088 prob:  0.17588939993839933
label: C 1 confidence:  0.10034338234033559 prob:  0.07086135925151535
decision:  [1] true label:  0  weighted prob:  0.5431262624999588
PAS-S:
{0: [43.2, 4.8], 1: [0.0, 38.3], 2: [1.8, 12.200000000000001], 3: [55.7, 93.99999999999999]}
{0: [0.6928501451277462, 0.09091698736970424, 0.21623286750254955], 1: [0.02197212844387989, 0.8635046478444797, 0.11452322371164048], 2: [0.1085416413018744, 0.5116963089945508, 0.37976204970357486], 3: [0.2992535799770188, 0.5013948870867156, 0.1993515329362655]}
label: C 0 single context prob:  0.8029306247456317
decision:  [1] true label:  0  single context prob:  0.8029306247456317
PAS:
PAS makes an automated decision, same as PAS-M decision.


scenario id: 10
PAS-M:
{0: [45.2, 8.8], 1: [1.0, 40.3], 2: [2.8, 13.200000000000001], 3: [58.7, 97.99999999999999]}
{0: [0.6251238702012031, 0.1326020330729824, 0.24227409672581457], 1: [0.039283008859117986, 0.8111941329407865, 0.1495228582000956], 2: [0.12801504143204284, 0.4783719969302654, 0.39361296163769177], 3: [0.30250880551977705, 0.5016477679473689, 0.19584342653285414]}
label: C 3 confidence:  0.916331266037013 prob:  0.3217704436521187
label: C 2 confidence:  0.03698696716551417 prob:  0.17588939993839933
label: C 1 confidence:  0.03384963559571846 prob:  0.07086135925151535
label: C 0 confidence:  0.012832131201754316 prob:  0.7383622904499284
decision:  [0] true label:  0  weighted prob:  0.3132273264392833
PAS-S:
{0: [43.2, 4.8], 1: [0.0, 38.3], 2: [1.8, 12.200000000000001], 3: [55.7, 93.99999999999999]}
{0: [0.6928501451277462, 0.09091698736970424, 0.21623286750254955], 1: [0.02197212844387989, 0.8635046478444797, 0.11452322371164048], 2: [0.1085416413018744, 0.5116963089945508, 0.37976204970357486], 3: [0.2992535799770188, 0.5013948870867156, 0.1993515329362655]}
label: C 3 single context prob:  0.31891066039163557
decision:  [0] true label:  0  single context prob:  0.31891066039163557
PAS:
PAS asks user.
Conflict ratio: 0.19913896242759183 Dominant context: 3


scenario id: 11
PAS-M:
{0: [45.2, 8.8], 1: [1.0, 40.3], 2: [2.8, 13.200000000000001], 3: [58.7, 97.99999999999999]}
{0: [0.6251238702012031, 0.1326020330729824, 0.24227409672581457], 1: [0.039283008859117986, 0.8111941329407865, 0.1495228582000956], 2: [0.12801504143204284, 0.4783719969302654, 0.39361296163769177], 3: [0.30250880551977705, 0.5016477679473689, 0.19584342653285414]}
label: C 0 confidence:  0.6336430744862116 prob:  0.7383622904499284
label: C 3 confidence:  0.1717168696575689 prob:  0.3217704436521187
label: C 2 confidence:  0.10618585174800638 prob:  0.17588939993839933
label: C 1 confidence:  0.08845420410821327 prob:  0.07086135925151535
decision:  [1] true label:  1  weighted prob:  0.5480565160181664
PAS-S:
{0: [43.2, 4.8], 1: [0.0, 38.3], 2: [1.8, 12.200000000000001], 3: [55.7, 93.99999999999999]}
{0: [0.6928501451277462, 0.09091698736970424, 0.21623286750254955], 1: [0.02197212844387989, 0.8635046478444797, 0.11452322371164048], 2: [0.1085416413018744, 0.5116963089945508, 0.37976204970357486], 3: [0.2992535799770188, 0.5013948870867156, 0.1993515329362655]}
label: C 0 single context prob:  0.8029306247456317
decision:  [1] true label:  1  single context prob:  0.8029306247456317
PAS:
PAS makes an automated decision, same as PAS-M decision.


scenario id: 12
PAS-M:
{0: [46.2, 8.8], 1: [1.0, 40.3], 2: [2.8, 13.200000000000001], 3: [58.7, 97.99999999999999]}
{0: [0.6300886655009403, 0.13082349410824606, 0.23908784039081354], 1: [0.039283008859117986, 0.8111941329407865, 0.1495228582000956], 2: [0.12801504143204284, 0.4783719969302654, 0.39361296163769177], 3: [0.30250880551977705, 0.5016477679473689, 0.19584342653285414]}
label: C 2 confidence:  0.42032691875171885 prob:  0.17588939993839933
label: C 3 confidence:  0.27100678015206825 prob:  0.3217704436521187
label: C 0 confidence:  0.18274267725969082 prob:  0.7422630630567075
label: C 1 confidence:  0.12592362383652192 prob:  0.07086135925151535
decision:  [0] true label:  0  weighted prob:  0.3056992799203533
PAS-S:
{0: [43.2, 4.8], 1: [0.0, 38.3], 2: [1.8, 12.200000000000001], 3: [55.7, 93.99999999999999]}
{0: [0.6928501451277462, 0.09091698736970424, 0.21623286750254955], 1: [0.02197212844387989, 0.8635046478444797, 0.11452322371164048], 2: [0.1085416413018744, 0.5116963089945508, 0.37976204970357486], 3: [0.2992535799770188, 0.5013948870867156, 0.1993515329362655]}
label: C 2 single context prob:  0.14207603199449492
decision:  [0] true label:  0  single context prob:  0.14207603199449492
PAS:
PAS makes an automated decision, same as PAS-M decision.


scenario id: 13
PAS-M:
{0: [46.2, 8.8], 1: [1.0, 40.3], 2: [3.8, 13.200000000000001], 3: [59.7, 97.99999999999999]}
{0: [0.6300886655009403, 0.13082349410824606, 0.23908784039081354], 1: [0.039283008859117986, 0.8111941329407865, 0.1495228582000956], 2: [0.14881466242906788, 0.44024337635265914, 0.410941961218273], 3: [0.3057159454544442, 0.4986141449751231, 0.19566990957043273]}
label: C 0 confidence:  0.6611341381304148 prob:  0.7422630630567075
label: C 3 confidence:  0.1499943881642746 prob:  0.32555410653888284
label: C 1 confidence:  0.09536343155725892 prob:  0.07086135925151535
label: C 2 confidence:  0.09350804214805179 prob:  0.21446536266831565
decision:  [1] true label:  1  weighted prob:  0.5663785580394272
PAS-S:
{0: [43.2, 4.8], 1: [0.0, 38.3], 2: [1.8, 12.200000000000001], 3: [55.7, 93.99999999999999]}
{0: [0.6928501451277462, 0.09091698736970424, 0.21623286750254955], 1: [0.02197212844387989, 0.8635046478444797, 0.11452322371164048], 2: [0.1085416413018744, 0.5116963089945508, 0.37976204970357486], 3: [0.2992535799770188, 0.5013948870867156, 0.1993515329362655]}
label: C 0 single context prob:  0.8029306247456317
decision:  [1] true label:  1  single context prob:  0.8029306247456317
PAS:
PAS makes an automated decision, same as PAS-M decision.


total user inputs:  2
PAS accuracy:  0.5714285714285714
PAS-M accuracy:  0.5
PAS-S accuracy:  0.42857142857142855
########################################################################
user id: 3
scenario id: 0
PAS-M:
{0: [44.4, 3.5999999999999996], 1: [13.3, 25.0], 2: [6.2, 7.800000000000001], 3: [70.1, 79.6]}
{0: [0.7299086960323168, 0.07395550664644626, 0.19613579732123698], 1: [0.2348574317558785, 0.42701351228341544, 0.3381290559607061], 2: [0.22622892137745215, 0.276502015016886, 0.4972690636056619], 3: [0.3727341636843227, 0.422536900041581, 0.20472893627409627]}
label: C 0 confidence:  0.4020725754924793 prob:  0.8330848521626621
label: C 3 confidence:  0.3604581185616977 prob:  0.40906599536671345
label: C 2 confidence:  0.1598868768392662 prob:  0.3870944614483237
label: C 1 confidence:  0.07758242910655688 prob:  0.2933491895414455
decision:  [1] true label:  1  weighted prob:  0.567061798354082
PAS-S:
{0: [44.4, 3.5999999999999996], 1: [13.3, 25.0], 2: [6.2, 7.800000000000001], 3: [70.1, 79.6]}
{0: [0.7299086960323168, 0.07395550664644626, 0.19613579732123698], 1: [0.2348574317558785, 0.42701351228341544, 0.3381290559607061], 2: [0.22622892137745215, 0.276502015016886, 0.4972690636056619], 3: [0.3727341636843227, 0.422536900041581, 0.20472893627409627]}
label: C 0 single context prob:  0.8330848521626621
decision:  [1] true label:  1  single context prob:  0.8330848521626621
PAS:
PAS makes an automated decision, same as PAS-M decision.


scenario id: 1
PAS-M:
{0: [45.4, 3.5999999999999996], 1: [13.3, 25.0], 2: [6.2, 7.800000000000001], 3: [71.1, 79.6]}
{0: [0.7341601651739981, 0.07278311982328431, 0.1930567150027176], 1: [0.2348574317558785, 0.42701351228341544, 0.3381290559607061], 2: [0.22622892137745215, 0.276502015016886, 0.4972690636056619], 3: [0.3757319796360737, 0.4200277053906732, 0.20424031497325312]}
label: C 1 confidence:  0.5955168291804896 prob:  0.2933491895414455
label: C 3 confidence:  0.17992250974104101 prob:  0.41248957777354167
label: C 2 confidence:  0.14618610923694372 prob:  0.3870944614483237
label: C 0 confidence:  0.0783745518415255 prob:  0.8359429241548961
decision:  [0] true label:  1  weighted prob:  0.371015024545461
PAS-S:
{0: [44.4, 3.5999999999999996], 1: [13.3, 25.0], 2: [6.2, 7.800000000000001], 3: [70.1, 79.6]}
{0: [0.7299086960323168, 0.07395550664644626, 0.19613579732123698], 1: [0.2348574317558785, 0.42701351228341544, 0.3381290559607061], 2: [0.22622892137745215, 0.276502015016886, 0.4972690636056619], 3: [0.3727341636843227, 0.422536900041581, 0.20472893627409627]}
label: C 1 single context prob:  0.2933491895414455
decision:  [0] true label:  1  single context prob:  0.2933491895414455
PAS:
PAS asks user.
Conflict ratio: 0.19215608052753694 Dominant context: 1


scenario id: 2
PAS-M:
{0: [45.4, 3.5999999999999996], 1: [13.3, 25.0], 2: [6.2, 7.800000000000001], 3: [71.1, 79.6]}
{0: [0.7341601651739981, 0.07278311982328431, 0.1930567150027176], 1: [0.2348574317558785, 0.42701351228341544, 0.3381290559607061], 2: [0.22622892137745215, 0.276502015016886, 0.4972690636056619], 3: [0.3757319796360737, 0.4200277053906732, 0.20424031497325312]}
label: C 0 confidence:  0.309257233443323 prob:  0.8359429241548961
label: C 2 confidence:  0.2733350928867089 prob:  0.3870944614483237
label: C 3 confidence:  0.2612678131609384 prob:  0.41248957777354167
label: C 1 confidence:  0.15613986050902987 prob:  0.2933491895414455
decision:  [1] true label:  0  weighted prob:  0.5179016480885831
PAS-S:
{0: [44.4, 3.5999999999999996], 1: [13.3, 25.0], 2: [6.2, 7.800000000000001], 3: [70.1, 79.6]}
{0: [0.7299086960323168, 0.07395550664644626, 0.19613579732123698], 1: [0.2348574317558785, 0.42701351228341544, 0.3381290559607061], 2: [0.22622892137745215, 0.276502015016886, 0.4972690636056619], 3: [0.3727341636843227, 0.422536900041581, 0.20472893627409627]}
label: C 0 single context prob:  0.8330848521626621
decision:  [1] true label:  0  single context prob:  0.8330848521626621
PAS:
PAS makes an automated decision, same as PAS-M decision.


scenario id: 3
PAS-M:
{0: [45.4, 4.6], 1: [13.3, 26.0], 2: [6.2, 8.8], 3: [71.1, 80.6]}
{0: [0.707910736324273, 0.08543750265982611, 0.20665176101590088], 1: [0.23085863130703874, 0.43588692624405906, 0.33325444244890223], 2: [0.21887295555862946, 0.297910411732579, 0.48321663270879156], 3: [0.37357799038376127, 0.42280116526095596, 0.20362084435528283]}
label: C 3 confidence:  0.8907464405199171 prob:  0.40965936673209763
label: C 2 confidence:  0.047406774901243315 prob:  0.3648476691775979
label: C 1 confidence:  0.040740962003529085 prob:  0.2855500422001504
label: C 0 confidence:  0.021105822575310535 prob:  0.8142459825523598
decision:  [0] true label:  0  weighted prob:  0.41101778872799694
PAS-S:
{0: [44.4, 3.5999999999999996], 1: [13.3, 25.0], 2: [6.2, 7.800000000000001], 3: [70.1, 79.6]}
{0: [0.7299086960323168, 0.07395550664644626, 0.19613579732123698], 1: [0.2348574317558785, 0.42701351228341544, 0.3381290559607061], 2: [0.22622892137745215, 0.276502015016886, 0.4972690636056619], 3: [0.3727341636843227, 0.422536900041581, 0.20472893627409627]}
label: C 3 single context prob:  0.40906599536671345
decision:  [0] true label:  0  single context prob:  0.40906599536671345
PAS:
PAS asks user.
Conflict ratio: 0.049223174877194686 Dominant context: 3


scenario id: 4
PAS-M:
{0: [45.4, 4.6], 1: [13.3, 26.0], 2: [6.2, 8.8], 3: [71.1, 80.6]}
{0: [0.707910736324273, 0.08543750265982611, 0.20665176101590088], 1: [0.23085863130703874, 0.43588692624405906, 0.33325444244890223], 2: [0.21887295555862946, 0.297910411732579, 0.48321663270879156], 3: [0.37357799038376127, 0.42280116526095596, 0.20362084435528283]}
label: C 3 confidence:  0.2682661557992465 prob:  0.40965936673209763
label: C 0 confidence:  0.25588640360765985 prob:  0.8142459825523598
label: C 1 confidence:  0.2555255536776115 prob:  0.2855500422001504
label: C 2 confidence:  0.2203218869154821 prob:  0.3648476691775979
decision:  [0] true label:  0  weighted prob:  0.47160147917346495
PAS-S:
{0: [44.4, 3.5999999999999996], 1: [13.3, 25.0], 2: [6.2, 7.800000000000001], 3: [70.1, 79.6]}
{0: [0.7299086960323168, 0.07395550664644626, 0.19613579732123698], 1: [0.2348574317558785, 0.42701351228341544, 0.3381290559607061], 2: [0.22622892137745215, 0.276502015016886, 0.4972690636056619], 3: [0.3727341636843227, 0.422536900041581, 0.20472893627409627]}
label: C 3 single context prob:  0.40906599536671345
decision:  [0] true label:  0  single context prob:  0.40906599536671345
PAS:
PAS makes an automated decision, same as PAS-M decision.


scenario id: 5
PAS-M:
{0: [46.4, 4.6], 1: [14.3, 26.0], 2: [7.2, 8.8], 3: [72.1, 80.6]}
{0: [0.7122857630610873, 0.08415190449666853, 0.2035623324422442], 1: [0.24125775053916074, 0.42574897153969543, 0.33299327792114386], 2: [0.23846439015724005, 0.28499402726109185, 0.4765415825816681], 3: [0.3765382709082967, 0.42032179078135445, 0.20313993831034882]}
label: C 3 confidence:  0.44305685840694825 prob:  0.4130380912446863
label: C 0 confidence:  0.32757197239345415 prob:  0.817293004567635
label: C 2 confidence:  0.12099926093353594 prob:  0.3885778349289172
label: C 1 confidence:  0.10837190826606177 prob:  0.2992821716872881
decision:  [1] true label:  0  weighted prob:  0.5301730515361808
PAS-S:
{0: [44.4, 3.5999999999999996], 1: [13.3, 25.0], 2: [6.2, 7.800000000000001], 3: [70.1, 79.6]}
{0: [0.7299086960323168, 0.07395550664644626, 0.19613579732123698], 1: [0.2348574317558785, 0.42701351228341544, 0.3381290559607061], 2: [0.22622892137745215, 0.276502015016886, 0.4972690636056619], 3: [0.3727341636843227, 0.422536900041581, 0.20472893627409627]}
label: C 3 single context prob:  0.40906599536671345
decision:  [0] true label:  0  single context prob:  0.40906599536671345
PAS:
PAS makes an automated decision, same as PAS-M decision.


scenario id: 6
PAS-M:
{0: [46.4, 5.6], 1: [14.3, 26.0], 2: [7.2, 8.8], 3: [72.1, 81.6]}
{0: [0.6894872046283024, 0.0960045474798902, 0.21450824789180745], 1: [0.24125775053916074, 0.42574897153969543, 0.33299327792114386], 2: [0.23846439015724005, 0.28499402726109185, 0.4765415825816681], 3: [0.3744052279199467, 0.42306254208190974, 0.20253222999814358]}
label: C 3 confidence:  0.850934696674991 prob:  0.4102407658423002
label: C 2 confidence:  0.05298390127048364 prob:  0.3885778349289172
label: C 0 confidence:  0.04816858651014484 prob:  0.7975983860938297
label: C 1 confidence:  0.04791281554438048 prob:  0.2992821716872881
decision:  [0] true label:  0  weighted prob:  0.42243510963619296
PAS-S:
{0: [44.4, 3.5999999999999996], 1: [13.3, 25.0], 2: [6.2, 7.800000000000001], 3: [70.1, 79.6]}
{0: [0.7299086960323168, 0.07395550664644626, 0.19613579732123698], 1: [0.2348574317558785, 0.42701351228341544, 0.3381290559607061], 2: [0.22622892137745215, 0.276502015016886, 0.4972690636056619], 3: [0.3727341636843227, 0.422536900041581, 0.20472893627409627]}
label: C 3 single context prob:  0.40906599536671345
decision:  [0] true label:  0  single context prob:  0.40906599536671345
PAS:
PAS asks user.
Conflict ratio: 0.04865731416196306 Dominant context: 3


scenario id: 7
PAS-M:
{0: [46.4, 5.6], 1: [14.3, 26.0], 2: [7.2, 8.8], 3: [72.1, 81.6]}
{0: [0.6894872046283024, 0.0960045474798902, 0.21450824789180745], 1: [0.24125775053916074, 0.42574897153969543, 0.33299327792114386], 2: [0.23846439015724005, 0.28499402726109185, 0.4765415825816681], 3: [0.3744052279199467, 0.42306254208190974, 0.20253222999814358]}
label: C 3 confidence:  0.8209337037221516 prob:  0.4102407658423002
label: C 2 confidence:  0.07033004697215164 prob:  0.3885778349289172
label: C 1 confidence:  0.05945947376218235 prob:  0.2992821716872881
label: C 0 confidence:  0.0492767755435143 prob:  0.7975983860938297
decision:  [0] true label:  0  weighted prob:  0.4212074057839634
PAS-S:
{0: [44.4, 3.5999999999999996], 1: [13.3, 25.0], 2: [6.2, 7.800000000000001], 3: [70.1, 79.6]}
{0: [0.7299086960323168, 0.07395550664644626, 0.19613579732123698], 1: [0.2348574317558785, 0.42701351228341544, 0.3381290559607061], 2: [0.22622892137745215, 0.276502015016886, 0.4972690636056619], 3: [0.3727341636843227, 0.422536900041581, 0.20472893627409627]}
label: C 3 single context prob:  0.40906599536671345
decision:  [0] true label:  0  single context prob:  0.40906599536671345
PAS:
PAS asks user.
Conflict ratio: 0.04865731416196306 Dominant context: 3


scenario id: 8
PAS-M:
{0: [46.4, 5.6], 1: [14.3, 26.0], 2: [7.2, 8.8], 3: [72.1, 81.6]}
{0: [0.6894872046283024, 0.0960045474798902, 0.21450824789180745], 1: [0.24125775053916074, 0.42574897153969543, 0.33299327792114386], 2: [0.23846439015724005, 0.28499402726109185, 0.4765415825816681], 3: [0.3744052279199467, 0.42306254208190974, 0.20253222999814358]}
label: C 0 confidence:  0.3857896395881778 prob:  0.7975983860938297
label: C 3 confidence:  0.35865860642820135 prob:  0.4102407658423002
label: C 2 confidence:  0.13913564127020933 prob:  0.3885778349289172
label: C 1 confidence:  0.11641611271341168 prob:  0.2992821716872881
decision:  [1] true label:  1  weighted prob:  0.5437478685627747
PAS-S:
{0: [44.4, 3.5999999999999996], 1: [13.3, 25.0], 2: [6.2, 7.800000000000001], 3: [70.1, 79.6]}
{0: [0.7299086960323168, 0.07395550664644626, 0.19613579732123698], 1: [0.2348574317558785, 0.42701351228341544, 0.3381290559607061], 2: [0.22622892137745215, 0.276502015016886, 0.4972690636056619], 3: [0.3727341636843227, 0.422536900041581, 0.20472893627409627]}
label: C 0 single context prob:  0.8330848521626621
decision:  [1] true label:  1  single context prob:  0.8330848521626621
PAS:
PAS makes an automated decision, same as PAS-M decision.


scenario id: 9
PAS-M:
{0: [47.4, 5.6], 1: [14.3, 26.0], 2: [7.2, 8.8], 3: [73.1, 81.6]}
{0: [0.6939237418213998, 0.09462596479382725, 0.21145029338477295], 1: [0.24125775053916074, 0.42574897153969543, 0.33299327792114386], 2: [0.23846439015724005, 0.28499402726109185, 0.4765415825816681], 3: [0.377328907741526, 0.4206122507348184, 0.2020588415236556]}
label: C 0 confidence:  0.604816149152533 prob:  0.8007852298347916
label: C 3 confidence:  0.19096728548431074 prob:  0.4135757885415846
label: C 2 confidence:  0.10387318302282088 prob:  0.3885778349289172
label: C 1 confidence:  0.10034338234033559 prob:  0.2992821716872881
decision:  [1] true label:  1  weighted prob:  0.6337010866341707
PAS-S:
{0: [44.4, 3.5999999999999996], 1: [13.3, 25.0], 2: [6.2, 7.800000000000001], 3: [70.1, 79.6]}
{0: [0.7299086960323168, 0.07395550664644626, 0.19613579732123698], 1: [0.2348574317558785, 0.42701351228341544, 0.3381290559607061], 2: [0.22622892137745215, 0.276502015016886, 0.4972690636056619], 3: [0.3727341636843227, 0.422536900041581, 0.20472893627409627]}
label: C 0 single context prob:  0.8330848521626621
decision:  [1] true label:  1  single context prob:  0.8330848521626621
PAS:
PAS makes an automated decision, same as PAS-M decision.


scenario id: 10
PAS-M:
{0: [48.4, 5.6], 1: [14.3, 26.0], 2: [7.2, 8.8], 3: [73.1, 81.6]}
{0: [0.6982307516688693, 0.09328588989907972, 0.208483358432051], 1: [0.24125775053916074, 0.42574897153969543, 0.33299327792114386], 2: [0.23846439015724005, 0.28499402726109185, 0.4765415825816681], 3: [0.377328907741526, 0.4206122507348184, 0.2020588415236556]}
label: C 3 confidence:  0.916331266037013 prob:  0.4135757885415846
label: C 2 confidence:  0.03698696716551417 prob:  0.3885778349289172
label: C 1 confidence:  0.03384963559571846 prob:  0.2992821716872881
label: C 0 confidence:  0.012832131201754316 prob:  0.8038722111076172
decision:  [0] true label:  1  weighted prob:  0.41379072767261593
PAS-S:
{0: [44.4, 3.5999999999999996], 1: [13.3, 25.0], 2: [6.2, 7.800000000000001], 3: [70.1, 79.6]}
{0: [0.7299086960323168, 0.07395550664644626, 0.19613579732123698], 1: [0.2348574317558785, 0.42701351228341544, 0.3381290559607061], 2: [0.22622892137745215, 0.276502015016886, 0.4972690636056619], 3: [0.3727341636843227, 0.422536900041581, 0.20472893627409627]}
label: C 3 single context prob:  0.40906599536671345
decision:  [0] true label:  1  single context prob:  0.40906599536671345
PAS:
PAS asks user.
Conflict ratio: 0.043283342993292395 Dominant context: 3


scenario id: 11
PAS-M:
{0: [48.4, 5.6], 1: [14.3, 26.0], 2: [7.2, 8.8], 3: [73.1, 81.6]}
{0: [0.6982307516688693, 0.09328588989907972, 0.208483358432051], 1: [0.24125775053916074, 0.42574897153969543, 0.33299327792114386], 2: [0.23846439015724005, 0.28499402726109185, 0.4765415825816681], 3: [0.377328907741526, 0.4206122507348184, 0.2020588415236556]}
label: C 0 confidence:  0.6336430744862116 prob:  0.8038722111076172
label: C 3 confidence:  0.1717168696575689 prob:  0.4135757885415846
label: C 2 confidence:  0.10618585174800638 prob:  0.3885778349289172
label: C 1 confidence:  0.08845420410821327 prob:  0.2992821716872881
decision:  [1] true label:  1  weighted prob:  0.648120233787481
PAS-S:
{0: [44.4, 3.5999999999999996], 1: [13.3, 25.0], 2: [6.2, 7.800000000000001], 3: [70.1, 79.6]}
{0: [0.7299086960323168, 0.07395550664644626, 0.19613579732123698], 1: [0.2348574317558785, 0.42701351228341544, 0.3381290559607061], 2: [0.22622892137745215, 0.276502015016886, 0.4972690636056619], 3: [0.3727341636843227, 0.422536900041581, 0.20472893627409627]}
label: C 0 single context prob:  0.8330848521626621
decision:  [1] true label:  1  single context prob:  0.8330848521626621
PAS:
PAS makes an automated decision, same as PAS-M decision.


scenario id: 12
PAS-M:
{0: [49.4, 5.6], 1: [14.3, 26.0], 2: [7.2, 8.8], 3: [73.1, 81.6]}
{0: [0.7024138540479345, 0.09198276660151526, 0.20560337935055017], 1: [0.24125775053916074, 0.42574897153969543, 0.33299327792114386], 2: [0.23846439015724005, 0.28499402726109185, 0.4765415825816681], 3: [0.377328907741526, 0.4206122507348184, 0.2020588415236556]}
label: C 2 confidence:  0.42032691875171885 prob:  0.3885778349289172
label: C 3 confidence:  0.27100678015206825 prob:  0.4135757885415846
label: C 0 confidence:  0.18274267725969082 prob:  0.8068639140029802
label: C 1 confidence:  0.12592362383652192 prob:  0.2992821716872881
decision:  [0] true label:  0  weighted prob:  0.4605467342900583
PAS-S:
{0: [44.4, 3.5999999999999996], 1: [13.3, 25.0], 2: [6.2, 7.800000000000001], 3: [70.1, 79.6]}
{0: [0.7299086960323168, 0.07395550664644626, 0.19613579732123698], 1: [0.2348574317558785, 0.42701351228341544, 0.3381290559607061], 2: [0.22622892137745215, 0.276502015016886, 0.4972690636056619], 3: [0.3727341636843227, 0.422536900041581, 0.20472893627409627]}
label: C 2 single context prob:  0.3870944614483237
decision:  [0] true label:  0  single context prob:  0.3870944614483237
PAS:
PAS makes an automated decision, same as PAS-M decision.


scenario id: 13
PAS-M:
{0: [49.4, 5.6], 1: [14.3, 26.0], 2: [8.2, 8.8], 3: [74.1, 81.6]}
{0: [0.7024138540479345, 0.09198276660151526, 0.20560337935055017], 1: [0.24125775053916074, 0.42574897153969543, 0.33299327792114386], 2: [0.25734873264935765, 0.27413234564822886, 0.4685189217024135], 3: [0.3802235559865328, 0.4181952826163463, 0.2015811613971209]}
label: C 0 confidence:  0.6611341381304148 prob:  0.8068639140029802
label: C 3 confidence:  0.1499943881642746 prob:  0.416871962064205
label: C 1 confidence:  0.09536343155725892 prob:  0.2992821716872881
label: C 2 confidence:  0.09350804214805179 prob:  0.41002389468394423
decision:  [1] true label:  1  weighted prob:  0.6628548397873777
PAS-S:
{0: [44.4, 3.5999999999999996], 1: [13.3, 25.0], 2: [6.2, 7.800000000000001], 3: [70.1, 79.6]}
{0: [0.7299086960323168, 0.07395550664644626, 0.19613579732123698], 1: [0.2348574317558785, 0.42701351228341544, 0.3381290559607061], 2: [0.22622892137745215, 0.276502015016886, 0.4972690636056619], 3: [0.3727341636843227, 0.422536900041581, 0.20472893627409627]}
label: C 0 single context prob:  0.8330848521626621
decision:  [1] true label:  1  single context prob:  0.8330848521626621
PAS:
PAS makes an automated decision, same as PAS-M decision.


total user inputs:  5
PAS accuracy:  0.8571428571428571
PAS-M accuracy:  0.7142857142857143
PAS-S accuracy:  0.7857142857142857
########################################################################
user id: 6
scenario id: 0
PAS-M:
{0: [42.3, 5.7], 1: [0.0, 38.3], 2: [2.5999999999999996, 11.4], 3: [48.5, 101.2]}
{0: [0.6676073760934855, 0.10330183417612826, 0.2290907897303862], 1: [0.02197212844387989, 0.8635046478444797, 0.11452322371164048], 2: [0.13068511395113597, 0.4501376147205795, 0.41917727132828453], 3: [0.26298836899711736, 0.5429780062930383, 0.19403362470984442]}
label: C 0 confidence:  0.4020725754924793 prob:  0.7813963511597106
label: C 3 confidence:  0.3604581185616977 prob:  0.2740525531242611
label: C 2 confidence:  0.1598868768392662 prob:  0.1935040196873115
label: C 1 confidence:  0.07758242910655688 prob:  0.052149530178030284
decision:  [0] true label:  0  weighted prob:  0.44794715166903687
PAS-S:
{0: [42.3, 5.7], 1: [0.0, 38.3], 2: [2.5999999999999996, 11.4], 3: [48.5, 101.2]}
{0: [0.6676073760934855, 0.10330183417612826, 0.2290907897303862], 1: [0.02197212844387989, 0.8635046478444797, 0.11452322371164048], 2: [0.13068511395113597, 0.4501376147205795, 0.41917727132828453], 3: [0.26298836899711736, 0.5429780062930383, 0.19403362470984442]}
label: C 0 single context prob:  0.7813963511597106
decision:  [1] true label:  0  single context prob:  0.7813963511597106
PAS:
PAS makes an automated decision, same as PAS-M decision.


scenario id: 1
PAS-M:
{0: [43.3, 5.7], 1: [0.0, 38.3], 2: [2.5999999999999996, 11.4], 3: [49.5, 101.2]}
{0: [0.6726582922285103, 0.10173387263952646, 0.22560783513196325], 1: [0.02197212844387989, 0.8635046478444797, 0.11452322371164048], 2: [0.13068511395113597, 0.4501376147205795, 0.41917727132828453], 3: [0.2665294688171114, 0.5393923111506691, 0.19407822003221953]}
label: C 1 confidence:  0.5955168291804896 prob:  0.052149530178030284
label: C 3 confidence:  0.17992250974104101 prob:  0.2782921011892562
label: C 2 confidence:  0.14618610923694372 prob:  0.1935040196873115
label: C 0 confidence:  0.0783745518415255 prob:  0.7850710345418938
decision:  [0] true label:  0  weighted prob:  0.17094412639773235
PAS-S:
{0: [42.3, 5.7], 1: [0.0, 38.3], 2: [2.5999999999999996, 11.4], 3: [48.5, 101.2]}
{0: [0.6676073760934855, 0.10330183417612826, 0.2290907897303862], 1: [0.02197212844387989, 0.8635046478444797, 0.11452322371164048], 2: [0.13068511395113597, 0.4501376147205795, 0.41917727132828453], 3: [0.26298836899711736, 0.5429780062930383, 0.19403362470984442]}
label: C 1 single context prob:  0.052149530178030284
decision:  [0] true label:  0  single context prob:  0.052149530178030284
PAS:
PAS makes an automated decision, same as PAS-M decision.


scenario id: 2
PAS-M:
{0: [43.3, 5.7], 1: [1.0, 38.3], 2: [2.5999999999999996, 11.4], 3: [49.5, 101.2]}
{0: [0.6726582922285103, 0.10173387263952646, 0.22560783513196325], 1: [0.04090421884884598, 0.8037679003798234, 0.15532788077133064], 2: [0.13068511395113597, 0.4501376147205795, 0.41917727132828453], 3: [0.2665294688171114, 0.5393923111506691, 0.19407822003221953]}
label: C 0 confidence:  0.309257233443323 prob:  0.7850710345418938
label: C 2 confidence:  0.2733350928867089 prob:  0.1935040196873115
label: C 3 confidence:  0.2612678131609384 prob:  0.2782921011892562
label: C 1 confidence:  0.15613986050902987 prob:  0.07255505498406756
decision:  [0] true label:  0  weighted prob:  0.37971784025621313
PAS-S:
{0: [42.3, 5.7], 1: [0.0, 38.3], 2: [2.5999999999999996, 11.4], 3: [48.5, 101.2]}
{0: [0.6676073760934855, 0.10330183417612826, 0.2290907897303862], 1: [0.02197212844387989, 0.8635046478444797, 0.11452322371164048], 2: [0.13068511395113597, 0.4501376147205795, 0.41917727132828453], 3: [0.26298836899711736, 0.5429780062930383, 0.19403362470984442]}
label: C 0 single context prob:  0.7813963511597106
decision:  [1] true label:  0  single context prob:  0.7813963511597106
PAS:
PAS makes an automated decision, same as PAS-M decision.


scenario id: 3
PAS-M:
{0: [44.3, 5.7], 1: [2.0, 38.3], 2: [3.5999999999999996, 11.4], 3: [50.5, 101.2]}
{0: [0.6775528117101748, 0.10021200526397737, 0.22223518302584788], 1: [0.057796334777668365, 0.7571319855874555, 0.18507167963487614], 2: [0.15241913584594188, 0.41086897488906077, 0.4367118892649974], 3: [0.27003365528656864, 0.5358726130152875, 0.1940937316981438]}
label: C 3 confidence:  0.8907464405199171 prob:  0.28248037913048246
label: C 2 confidence:  0.047406774901243315 prob:  0.2350149031407658
label: C 1 confidence:  0.040740962003529085 prob:  0.08687701527470192
label: C 0 confidence:  0.021105822575310535 prob:  0.7886232881944563
decision:  [0] true label:  1  weighted prob:  0.28294368721650254
PAS-S:
{0: [42.3, 5.7], 1: [0.0, 38.3], 2: [2.5999999999999996, 11.4], 3: [48.5, 101.2]}
{0: [0.6676073760934855, 0.10330183417612826, 0.2290907897303862], 1: [0.02197212844387989, 0.8635046478444797, 0.11452322371164048], 2: [0.13068511395113597, 0.4501376147205795, 0.41917727132828453], 3: [0.26298836899711736, 0.5429780062930383, 0.19403362470984442]}
label: C 3 single context prob:  0.2740525531242611
decision:  [0] true label:  1  single context prob:  0.2740525531242611
PAS:
PAS makes an automated decision, same as PAS-M decision.


scenario id: 4
PAS-M:
{0: [44.3, 5.7], 1: [2.0, 38.3], 2: [3.5999999999999996, 11.4], 3: [50.5, 102.2]}
{0: [0.6775528117101748, 0.10021200526397737, 0.22223518302584788], 1: [0.057796334777668365, 0.7571319855874555, 0.18507167963487614], 2: [0.15241913584594188, 0.41086897488906077, 0.4367118892649974], 3: [0.26855294644086747, 0.5381488169455829, 0.1932982366135496]}
label: C 3 confidence:  0.2682661557992465 prob:  0.2805086710577481
label: C 0 confidence:  0.25588640360765985 prob:  0.7886232881944563
label: C 1 confidence:  0.2555255536776115 prob:  0.08687701527470192
label: C 2 confidence:  0.2203218869154821 prob:  0.2350149031407658
decision:  [0] true label:  0  weighted prob:  0.35102718421350326
PAS-S:
{0: [42.3, 5.7], 1: [0.0, 38.3], 2: [2.5999999999999996, 11.4], 3: [48.5, 101.2]}
{0: [0.6676073760934855, 0.10330183417612826, 0.2290907897303862], 1: [0.02197212844387989, 0.8635046478444797, 0.11452322371164048], 2: [0.13068511395113597, 0.4501376147205795, 0.41917727132828453], 3: [0.26298836899711736, 0.5429780062930383, 0.19403362470984442]}
label: C 3 single context prob:  0.2740525531242611
decision:  [0] true label:  0  single context prob:  0.2740525531242611
PAS:
PAS makes an automated decision, same as PAS-M decision.


scenario id: 5
PAS-M:
{0: [45.3, 5.7], 1: [3.0, 38.3], 2: [4.6, 11.4], 3: [51.5, 102.2]}
{0: [0.6822981030617173, 0.09873428273247321, 0.21896761420580946], 1: [0.07326108583067042, 0.7197901682863369, 0.2069487458829926], 2: [0.17260986898506522, 0.3822075670383587, 0.4451825639765761], 3: [0.2720066036477163, 0.5346872665989394, 0.19330612975334438]}
label: C 3 confidence:  0.44305685840694825 prob:  0.2846319553650873
label: C 0 confidence:  0.32757197239345415 prob:  0.7920590612549515
label: C 2 confidence:  0.12099926093353594 prob:  0.26956726270562525
label: C 1 confidence:  0.10837190826606177 prob:  0.0980515109266405
decision:  [0] true label:  0  weighted prob:  0.4288079578004221
PAS-S:
{0: [42.3, 5.7], 1: [0.0, 38.3], 2: [2.5999999999999996, 11.4], 3: [48.5, 101.2]}
{0: [0.6676073760934855, 0.10330183417612826, 0.2290907897303862], 1: [0.02197212844387989, 0.8635046478444797, 0.11452322371164048], 2: [0.13068511395113597, 0.4501376147205795, 0.41917727132828453], 3: [0.26298836899711736, 0.5429780062930383, 0.19403362470984442]}
label: C 3 single context prob:  0.2740525531242611
decision:  [0] true label:  0  single context prob:  0.2740525531242611
PAS:
PAS makes an automated decision, same as PAS-M decision.


scenario id: 6
PAS-M:
{0: [46.3, 5.7], 1: [3.0, 38.3], 2: [4.6, 11.4], 3: [52.5, 102.2]}
{0: [0.6869009119202523, 0.09729886067369328, 0.21580022740605442], 1: [0.07326108583067042, 0.7197901682863369, 0.2069487458829926], 2: [0.17260986898506522, 0.3822075670383587, 0.4451825639765761], 3: [0.27542298941264853, 0.5312832244371088, 0.19329378615024262]}
label: C 3 confidence:  0.850934696674991 prob:  0.2887055151332362
label: C 2 confidence:  0.05298390127048364 prob:  0.26956726270562525
label: C 0 confidence:  0.04816858651014484 prob:  0.7953839321041519
label: C 1 confidence:  0.04791281554438048 prob:  0.0980515109266405
decision:  [0] true label:  1  weighted prob:  0.30296270888046073
PAS-S:
{0: [42.3, 5.7], 1: [0.0, 38.3], 2: [2.5999999999999996, 11.4], 3: [48.5, 101.2]}
{0: [0.6676073760934855, 0.10330183417612826, 0.2290907897303862], 1: [0.02197212844387989, 0.8635046478444797, 0.11452322371164048], 2: [0.13068511395113597, 0.4501376147205795, 0.41917727132828453], 3: [0.26298836899711736, 0.5429780062930383, 0.19403362470984442]}
label: C 3 single context prob:  0.2740525531242611
decision:  [0] true label:  1  single context prob:  0.2740525531242611
PAS:
PAS makes an automated decision, same as PAS-M decision.


scenario id: 7
PAS-M:
{0: [46.3, 5.7], 1: [3.0, 38.3], 2: [4.6, 11.4], 3: [52.5, 103.2]}
{0: [0.6869009119202523, 0.09729886067369328, 0.21580022740605442], 1: [0.07326108583067042, 0.7197901682863369, 0.2069487458829926], 2: [0.17260986898506522, 0.3822075670383587, 0.4451825639765761], 3: [0.2739376343536529, 0.5335383457878623, 0.19252401985848477]}
label: C 3 confidence:  0.8209337037221516 prob:  0.2867330991890183
label: C 2 confidence:  0.07033004697215164 prob:  0.26956726270562525
label: C 1 confidence:  0.05945947376218235 prob:  0.0980515109266405
label: C 0 confidence:  0.0492767755435143 prob:  0.7953839321041519
decision:  [0] true label:  0  weighted prob:  0.29937159007971187
PAS-S:
{0: [42.3, 5.7], 1: [0.0, 38.3], 2: [2.5999999999999996, 11.4], 3: [48.5, 101.2]}
{0: [0.6676073760934855, 0.10330183417612826, 0.2290907897303862], 1: [0.02197212844387989, 0.8635046478444797, 0.11452322371164048], 2: [0.13068511395113597, 0.4501376147205795, 0.41917727132828453], 3: [0.26298836899711736, 0.5429780062930383, 0.19403362470984442]}
label: C 3 single context prob:  0.2740525531242611
decision:  [0] true label:  0  single context prob:  0.2740525531242611
PAS:
PAS makes an automated decision, same as PAS-M decision.


scenario id: 8
PAS-M:
{0: [46.3, 5.7], 1: [3.0, 38.3], 2: [4.6, 11.4], 3: [53.5, 103.2]}
{0: [0.6869009119202523, 0.09729886067369328, 0.21580022740605442], 1: [0.07326108583067042, 0.7197901682863369, 0.2069487458829926], 2: [0.17260986898506522, 0.3822075670383587, 0.4451825639765761], 3: [0.2773069731477228, 0.5301905798530772, 0.19250244699920005]}
label: C 0 confidence:  0.3857896395881778 prob:  0.7953839321041519
label: C 3 confidence:  0.35865860642820135 prob:  0.29074545734960067
label: C 2 confidence:  0.13913564127020933 prob:  0.26956726270562525
label: C 1 confidence:  0.11641611271341168 prob:  0.0980515109266405
decision:  [0] true label:  0  weighted prob:  0.46005043076878455
PAS-S:
{0: [42.3, 5.7], 1: [0.0, 38.3], 2: [2.5999999999999996, 11.4], 3: [48.5, 101.2]}
{0: [0.6676073760934855, 0.10330183417612826, 0.2290907897303862], 1: [0.02197212844387989, 0.8635046478444797, 0.11452322371164048], 2: [0.13068511395113597, 0.4501376147205795, 0.41917727132828453], 3: [0.26298836899711736, 0.5429780062930383, 0.19403362470984442]}
label: C 0 single context prob:  0.7813963511597106
decision:  [1] true label:  0  single context prob:  0.7813963511597106
PAS:
PAS makes an automated decision, same as PAS-M decision.


scenario id: 9
PAS-M:
{0: [47.3, 5.7], 1: [3.0, 38.3], 2: [4.6, 11.4], 3: [54.5, 103.2]}
{0: [0.6913675808720213, 0.09590399154953506, 0.21272842757844357], 1: [0.07326108583067042, 0.7197901682863369, 0.2069487458829926], 2: [0.17260986898506522, 0.3822075670383587, 0.4451825639765761], 3: [0.2806407529880717, 0.5268966929974246, 0.19246255401450363]}
label: C 0 confidence:  0.604816149152533 prob:  0.7986031320982585
label: C 3 confidence:  0.19096728548431074 prob:  0.29471040216069366
label: C 2 confidence:  0.10387318302282088 prob:  0.26956726270562525
label: C 1 confidence:  0.10034338234033559 prob:  0.0980515109266405
decision:  [1] true label:  1  weighted prob:  0.5771277464273793
PAS-S:
{0: [42.3, 5.7], 1: [0.0, 38.3], 2: [2.5999999999999996, 11.4], 3: [48.5, 101.2]}
{0: [0.6676073760934855, 0.10330183417612826, 0.2290907897303862], 1: [0.02197212844387989, 0.8635046478444797, 0.11452322371164048], 2: [0.13068511395113597, 0.4501376147205795, 0.41917727132828453], 3: [0.26298836899711736, 0.5429780062930383, 0.19403362470984442]}
label: C 0 single context prob:  0.7813963511597106
decision:  [1] true label:  1  single context prob:  0.7813963511597106
PAS:
PAS makes an automated decision, same as PAS-M decision.


scenario id: 10
PAS-M:
{0: [48.3, 5.7], 1: [3.0, 38.3], 2: [4.6, 11.4], 3: [54.5, 103.2]}
{0: [0.6957040883691992, 0.09454802012319746, 0.20974789150760342], 1: [0.07326108583067042, 0.7197901682863369, 0.2069487458829926], 2: [0.17260986898506522, 0.3822075670383587, 0.4451825639765761], 3: [0.2806407529880717, 0.5268966929974246, 0.19246255401450363]}
label: C 3 confidence:  0.916331266037013 prob:  0.29471040216069366
label: C 2 confidence:  0.03698696716551417 prob:  0.26956726270562525
label: C 1 confidence:  0.03384963559571846 prob:  0.0980515109266405
label: C 0 confidence:  0.012832131201754316 prob:  0.8017215754067021
decision:  [0] true label:  0  weighted prob:  0.29362963577814855
PAS-S:
{0: [42.3, 5.7], 1: [0.0, 38.3], 2: [2.5999999999999996, 11.4], 3: [48.5, 101.2]}
{0: [0.6676073760934855, 0.10330183417612826, 0.2290907897303862], 1: [0.02197212844387989, 0.8635046478444797, 0.11452322371164048], 2: [0.13068511395113597, 0.4501376147205795, 0.41917727132828453], 3: [0.26298836899711736, 0.5429780062930383, 0.19403362470984442]}
label: C 3 single context prob:  0.2740525531242611
decision:  [0] true label:  0  single context prob:  0.2740525531242611
PAS:
PAS makes an automated decision, same as PAS-M decision.


scenario id: 11
PAS-M:
{0: [48.3, 5.7], 1: [3.0, 38.3], 2: [4.6, 11.4], 3: [55.5, 103.2]}
{0: [0.6957040883691992, 0.09454802012319746, 0.20974789150760342], 1: [0.07326108583067042, 0.7197901682863369, 0.2069487458829926], 2: [0.17260986898506522, 0.3822075670383587, 0.4451825639765761], 3: [0.2839396639144853, 0.5236550969891923, 0.19240523909632246]}
label: C 0 confidence:  0.6336430744862116 prob:  0.8017215754067021
label: C 3 confidence:  0.1717168696575689 prob:  0.29862882323206524
label: C 2 confidence:  0.10618585174800638 prob:  0.26956726270562525
label: C 1 confidence:  0.08845420410821327 prob:  0.0980515109266405
decision:  [1] true label:  1  weighted prob:  0.5965822283919646
PAS-S:
{0: [42.3, 5.7], 1: [0.0, 38.3], 2: [2.5999999999999996, 11.4], 3: [48.5, 101.2]}
{0: [0.6676073760934855, 0.10330183417612826, 0.2290907897303862], 1: [0.02197212844387989, 0.8635046478444797, 0.11452322371164048], 2: [0.13068511395113597, 0.4501376147205795, 0.41917727132828453], 3: [0.26298836899711736, 0.5429780062930383, 0.19403362470984442]}
label: C 0 single context prob:  0.7813963511597106
decision:  [1] true label:  1  single context prob:  0.7813963511597106
PAS:
PAS makes an automated decision, same as PAS-M decision.


scenario id: 12
PAS-M:
{0: [49.3, 5.7], 1: [3.0, 38.3], 2: [4.6, 11.4], 3: [55.5, 103.2]}
{0: [0.6999160695415167, 0.09322937705622591, 0.20685455340225734], 1: [0.07326108583067042, 0.7197901682863369, 0.2069487458829926], 2: [0.17260986898506522, 0.3822075670383587, 0.4451825639765761], 3: [0.2839396639144853, 0.5236550969891923, 0.19240523909632246]}
label: C 2 confidence:  0.42032691875171885 prob:  0.26956726270562525
label: C 3 confidence:  0.27100678015206825 prob:  0.29862882323206524
label: C 0 confidence:  0.18274267725969082 prob:  0.8047438804279349
label: C 1 confidence:  0.12592362383652192 prob:  0.0980515109266405
decision:  [0] true label:  0  weighted prob:  0.35364486557039604
PAS-S:
{0: [42.3, 5.7], 1: [0.0, 38.3], 2: [2.5999999999999996, 11.4], 3: [48.5, 101.2]}
{0: [0.6676073760934855, 0.10330183417612826, 0.2290907897303862], 1: [0.02197212844387989, 0.8635046478444797, 0.11452322371164048], 2: [0.13068511395113597, 0.4501376147205795, 0.41917727132828453], 3: [0.26298836899711736, 0.5429780062930383, 0.19403362470984442]}
label: C 2 single context prob:  0.1935040196873115
decision:  [0] true label:  0  single context prob:  0.1935040196873115
PAS:
PAS makes an automated decision, same as PAS-M decision.


scenario id: 13
PAS-M:
{0: [49.3, 5.7], 1: [3.0, 38.3], 2: [5.6, 11.4], 3: [56.5, 103.2]}
{0: [0.6999160695415167, 0.09322937705622591, 0.20685455340225734], 1: [0.07326108583067042, 0.7197901682863369, 0.2069487458829926], 2: [0.19170058829510073, 0.36016474164534085, 0.4481346700595584], 3: [0.2872043742413058, 0.5204642747120705, 0.1923313510466237]}
label: C 0 confidence:  0.6611341381304148 prob:  0.8047438804279349
label: C 3 confidence:  0.1499943881642746 prob:  0.3025015877424064
label: C 1 confidence:  0.09536343155725892 prob:  0.0980515109266405
label: C 2 confidence:  0.09350804214805179 prob:  0.29917908266651483
decision:  [1] true label:  0  weighted prob:  0.6147433711977266
PAS-S:
{0: [42.3, 5.7], 1: [0.0, 38.3], 2: [2.5999999999999996, 11.4], 3: [48.5, 101.2]}
{0: [0.6676073760934855, 0.10330183417612826, 0.2290907897303862], 1: [0.02197212844387989, 0.8635046478444797, 0.11452322371164048], 2: [0.13068511395113597, 0.4501376147205795, 0.41917727132828453], 3: [0.26298836899711736, 0.5429780062930383, 0.19403362470984442]}
label: C 0 single context prob:  0.7813963511597106
decision:  [1] true label:  0  single context prob:  0.7813963511597106
PAS:
PAS makes an automated decision, same as PAS-M decision.


total user inputs:  0
PAS accuracy:  0.7857142857142857
PAS-M accuracy:  0.7857142857142857
PAS-S accuracy:  0.5714285714285714

all users avg values:
avg user inputs:  1.75
PAS average accuracy:  0.6785714285714285
PAS-M average accuracy:  0.625
PAS-S average accuracy:  0.5535714285714286
